{
  "globalDependencies": {
    "node": "registry:dt/node#4.0.0+20160510211532"
  },
  "globalDevDependencies": {
    "chai": "registry:dt/chai#3.4.0+20160601211834",
    "mocha": "registry:dt/mocha#2.2.5+20160619032855"
  }
}
